<?xml version="1.0" encoding="UTF-8" standalone="no"?>
<svg width="31px" height="31px" viewBox="0 0 31 31" version="1.1" xmlns="http://www.w3.org/2000/svg" xmlns:xlink="http://www.w3.org/1999/xlink" xmlns:sketch="http://www.bohemiancoding.com/sketch/ns">
    <!-- Generator: Sketch 3.0.4 (8054) - http://www.bohemiancoding.com/sketch -->
    <title>delete</title>
    <desc>Created with Sketch.</desc>
    <defs></defs>
    <g id="Svgs" stroke="none" stroke-width="1" fill="none" fill-rule="evenodd" sketch:type="MSPage">
        <g id="delete" sketch:type="MSLayerGroup">
            <circle id="iconBorder" stroke-opacity="0" stroke="#444444" sketch:type="MSShapeGroup" cx="15.2263636" cy="15.2263636" r="15.2263636"></circle>
            <path d="M14.3217967,15.0549305 L9.82206945,10.5552033 L10.5394545,9.83781818 L15.0391818,14.3375455 L19.5389091,9.83781818 L20.2562942,10.5552033 L15.7565669,15.0549305 L20.6901965,19.9885601 L19.9728114,20.7059452 L15.0391818,15.7723156 L10.1055523,20.7059452 L9.38816718,19.9885601 L14.3217967,15.0549305 Z" fill="#BF4F51" sketch:type="MSShapeGroup"></path>
        </g>
        <g id="Slices" sketch:type="MSLayerGroup" transform="translate(-150.000000, -74.000000)"></g>
    </g>
</svg>